simulation/qsim/ceg3155lab1.msim.vcd
$comment
	File created using the following command:
		vcd file ceg3155lab1.msim.vcd -direction
$end
$date
	Wed Oct 02 21:35:08 2024
$end
$version
	ModelSim Version 10.1d
$end
$timescale
	1ps
$end
$scope module eight_bit_reg_shift_l_vlg_vec_tst $end
$var reg 1 ! CLK $end
$var reg 8 " D_in [7:0] $end
$var reg 1 # LD $end
$var reg 1 $ SHL $end
$var wire 1 % Q_out [7] $end
$var wire 1 & Q_out [6] $end
$var wire 1 ' Q_out [5] $end
$var wire 1 ( Q_out [4] $end
$var wire 1 ) Q_out [3] $end
$var wire 1 * Q_out [2] $end
$var wire 1 + Q_out [1] $end
$var wire 1 , Q_out [0] $end
$var wire 1 - sampler $end
$scope module i1 $end
$var wire 1 . gnd $end
$var wire 1 / vcc $end
$var wire 1 0 unknown $end
$var tri1 1 1 devclrn $end
$var tri1 1 2 devpor $end
$var tri1 1 3 devoe $end
$var wire 1 4 LD~input_o $end
$var wire 1 5 D_in[0]~input_o $end
$var wire 1 6 D_in[1]~input_o $end
$var wire 1 7 D_in[2]~input_o $end
$var wire 1 8 D_in[3]~input_o $end
$var wire 1 9 D_in[4]~input_o $end
$var wire 1 : D_in[5]~input_o $end
$var wire 1 ; D_in[6]~input_o $end
$var wire 1 < D_in[7]~input_o $end
$var wire 1 = Q_out[0]~output_o $end
$var wire 1 > Q_out[1]~output_o $end
$var wire 1 ? Q_out[2]~output_o $end
$var wire 1 @ Q_out[3]~output_o $end
$var wire 1 A Q_out[4]~output_o $end
$var wire 1 B Q_out[5]~output_o $end
$var wire 1 C Q_out[6]~output_o $end
$var wire 1 D Q_out[7]~output_o $end
$var wire 1 E SHL~input_o $end
$var wire 1 F CLK~input_o $end
$var wire 1 G U7|U1|int_q~0_combout $end
$var wire 1 H loop0:6:Un|U1|int_q~0_combout $end
$var wire 1 I loop0:5:Un|U1|int_q~0_combout $end
$var wire 1 J loop0:4:Un|U1|int_q~0_combout $end
$var wire 1 K loop0:3:Un|U1|int_q~0_combout $end
$var wire 1 L loop0:2:Un|U1|int_q~0_combout $end
$var wire 1 M loop0:1:Un|U1|int_q~0_combout $end
$var wire 1 N loop0:0:Un|U1|int_q~0_combout $end
$upscope $end
$upscope $end
$enddefinitions $end
#0
$dumpvars
0!
b100 "
0#
1$
x,
x+
x*
x)
x(
x'
x&
x%
x-
0.
1/
x0
11
12
13
04
05
06
17
08
09
0:
0;
0<
x=
x>
x?
x@
xA
xB
xC
xD
1E
0F
xG
xH
xI
xJ
xK
xL
xM
xN
$end
#5000
1!
1F
0-
1G
1H
0D
0%
1I
0C
0&
1J
0B
0'
1K
0A
0(
1L
0@
0)
1M
0?
0*
1N
0>
0+
0=
0,
#10000
b0 "
0!
07
0F
1-
#15000
1!
1F
0-
#20000
0!
0F
1-
#25000
1!
1F
0-
#30000
0!
0F
1-
#35000
1!
1F
0-
#40000
0!
0F
1-
#45000
1!
1F
0-
#50000
0!
0F
1-
#55000
1!
1F
0-
#60000
0!
0F
1-
#65000
1!
1F
0-
#70000
0!
0F
1-
#75000
1!
1F
0-
#80000
0!
0F
1-
#85000
1!
1F
0-
#90000
0!
0F
1-
#95000
1!
1F
0-
#100000
0!
0F
1-
#105000
1!
1F
0-
#110000
0!
0F
1-
#115000
1!
1F
0-
#120000
0!
0F
1-
#125000
1!
1F
0-
#130000
0!
0F
1-
#135000
1!
1F
0-
#140000
0!
0F
1-
#145000
1!
1F
0-
#150000
0!
0F
1-
#155000
1!
1F
0-
#160000
0!
0F
1-
#165000
1!
1F
0-
#170000
0!
0F
1-
#175000
1!
1F
0-
#180000
0!
0F
1-
#185000
1!
1F
0-
#190000
0!
0F
1-
#195000
1!
1F
0-
#200000
0!
0F
1-
#205000
1!
1F
0-
#210000
0!
0F
1-
#215000
1!
1F
0-
#220000
0!
0F
1-
#225000
1!
1F
0-
#230000
0!
0F
1-
#235000
1!
1F
0-
#240000
0!
0F
1-
#245000
1!
1F
0-
#250000
0!
0F
1-
#255000
1!
1F
0-
#260000
0!
0F
1-
#265000
1!
1F
0-
#270000
0!
0F
1-
#275000
1!
1F
0-
#280000
0!
0F
1-
#285000
1!
1F
0-
#290000
0!
0F
1-
#295000
1!
1F
0-
#300000
0!
0F
1-
#305000
1!
1F
0-
#310000
0!
0F
1-
#315000
1!
1F
0-
#320000
0!
0F
1-
#325000
1!
1F
0-
#330000
0!
0F
1-
#335000
1!
1F
0-
#340000
0!
0F
1-
#345000
1!
1F
0-
#350000
0!
0F
1-
#355000
1!
1F
0-
#360000
0!
0F
1-
#365000
1!
1F
0-
#370000
0!
0F
1-
#375000
1!
1F
0-
#380000
0!
0F
1-
#385000
1!
1F
0-
#390000
0!
0F
1-
#395000
1!
1F
0-
#400000
0!
0F
1-
#405000
1!
1F
0-
#410000
0!
0F
1-
#415000
1!
1F
0-
#420000
0!
0F
1-
#425000
1!
1F
0-
#430000
0!
0F
1-
#435000
1!
1F
0-
#440000
0!
0F
1-
#445000
1!
1F
0-
#450000
0!
0F
1-
#455000
1!
1F
0-
#460000
0!
0F
1-
#465000
1!
1F
0-
#470000
0!
0F
1-
#475000
1!
1F
0-
#480000
0!
0F
1-
#485000
1!
1F
0-
#490000
0!
0F
1-
#495000
1!
1F
0-
#500000
0!
0F
1-
#505000
1!
1F
0-
#510000
0!
0F
1-
#515000
1!
1F
0-
#520000
0!
0F
1-
#525000
1!
1F
0-
#530000
0!
0F
1-
#535000
1!
1F
0-
#540000
0!
0F
1-
#545000
1!
1F
0-
#550000
0!
0F
1-
#555000
1!
1F
0-
#560000
0!
0F
1-
#565000
1!
1F
0-
#570000
0!
0F
1-
#575000
1!
1F
0-
#580000
0!
0F
1-
#585000
1!
1F
0-
#590000
0!
0F
1-
#595000
1!
1F
0-
#600000
0!
0F
1-
#605000
1!
1F
0-
#610000
0!
0F
1-
#615000
1!
1F
0-
#620000
0!
0F
1-
#625000
1!
1F
0-
#630000
0!
0F
1-
#635000
1!
1F
0-
#640000
0!
0F
1-
#645000
1!
1F
0-
#650000
0!
0F
1-
#655000
1!
1F
0-
#660000
0!
0F
1-
#665000
1!
1F
0-
#670000
0!
0F
1-
#675000
1!
1F
0-
#680000
0!
0F
1-
#685000
1!
1F
0-
#690000
0!
0F
1-
#695000
1!
1F
0-
#700000
0!
0F
1-
#705000
1!
1F
0-
#710000
0!
0F
1-
#715000
1!
1F
0-
#720000
0!
0F
1-
#725000
1!
1F
0-
#730000
0!
0F
1-
#735000
1!
1F
0-
#740000
0!
0F
1-
#745000
1!
1F
0-
#750000
0!
0F
1-
#755000
1!
1F
0-
#760000
0!
0F
1-
#765000
1!
1F
0-
#770000
0!
0F
1-
#775000
1!
1F
0-
#780000
0!
0F
1-
#785000
1!
1F
0-
#790000
0!
0F
1-
#795000
1!
1F
0-
#800000
0!
0F
1-
#805000
1!
1F
0-
#810000
0!
0F
1-
#815000
1!
1F
0-
#820000
0!
0F
1-
#825000
1!
1F
0-
#830000
0!
0F
1-
#835000
1!
1F
0-
#840000
0!
0F
1-
#845000
1!
1F
0-
#850000
0!
0F
1-
#855000
1!
1F
0-
#860000
0!
0F
1-
#865000
1!
1F
0-
#870000
0!
0F
1-
#875000
1!
1F
0-
#880000
0!
0F
1-
#885000
1!
1F
0-
#890000
0!
0F
1-
#895000
1!
1F
0-
#900000
0!
0F
1-
#905000
1!
1F
0-
#910000
0!
0F
1-
#915000
1!
1F
0-
#920000
0!
0F
1-
#925000
1!
1F
0-
#930000
0!
0F
1-
#935000
1!
1F
0-
#940000
0!
0F
1-
#945000
1!
1F
0-
#950000
0!
0F
1-
#955000
1!
1F
0-
#960000
0!
0F
1-
#965000
1!
1F
0-
#970000
0!
0F
1-
#975000
1!
1F
0-
#980000
0!
0F
1-
#985000
1!
1F
0-
#990000
0!
0F
1-
#995000
1!
1F
0-
